{
  "genesis_time": "2023-09-13T11:33:30.182000833Z",
  "chain_id": "test-chain-aSQGfU",
  "initial_height": "0",
  "consensus_params": {
    "block": {
      "max_bytes": "22020096",
      "max_gas": "-1",
      "time_iota_ms": "1000"
    },
    "evidence": {
      "max_age_num_blocks": "100000",
      "max_age_duration": "172800000000000",
      "max_bytes": "1048576"
    },
    "validator": {
      "pub_key_types": [
        "ed25519"
      ]
    },
    "version": {}
  },
  "validators": [
    {
      "address": "A6B0E72F1BB919C9EEC5470F45C729B3ABF04DB7",
      "pub_key": {
        "type": "tendermint/PubKeyEd25519",
        "value": "oONnlPa72cpt66A/4Kfja0RruboZcqMk58IXe3B9W7g="
      },
      "power": "10",
      "name": ""
    }
  ],
  "app_hash": ""
}